fecha;localidad;departamento;provincia;latitud;longitud;condicion [r/i/f];tipo;edad;genero;descripción
2020-03-14;Rosario;Rosario;Santa Fe;-32,951583;-60,658914;i;i;28;m;"viaje de inglaterra.
https://www.lacapital.com.ar/pandemia/la-municipalidad-y-la-provincia-confirmaron-el-primer-caso-coronavirus-rosario-n2570958.html"
2020-03-19;Rosario;Rosario;Santa Fe;-32,951583;-60,658914;i;i;31;m;"Antecedente de viaje a España. 
https://341media.com.ar/provincia/covid-19-santa-fe-suma-dos-contagios-y-38-casos-descartados/"
2020-03-21;Santa Fe;La Capital;Santa Fe;-31,597238;-60,703039;i;i;28;f;"viaje de brasil 
https://www.ellitoral.com/index.php/id_um/231201-primer-caso-confirmado-de-coronavirus-en-la-ciudad-de-santa-fe-cuatro-casos-en-la-provincia-area-metropolitana.html"
2020-03-21;Rafaela;Castellanos;Santa Fe;-31,254752;-61,522802;i;i;30;f;https://diariolaopinion.com.ar/contenido/274184/el-primer-caso-confirmado-en-rafaela
2020-03-23;Rosario;Rosario;Santa Fe;-32,951583;-60,658914;;i;52;m;"camillero del Hospital Centenario
https://www.ellitoral.com/index.php/id_um/231314-se-confirmaron-13-casos-de-coronavirus-en-santa-fe-actualizacion-de-este-lunes-por-la-manana-salud.html"
2020-03-23;Rosario;Rosario;Santa Fe;-32,951583;-60,658914;;;;;
2020-03-23;Rosario;Rosario;Santa Fe;-32,951583;-60,658914;;;;;
2020-03-23;Rosario;Rosario;Santa Fe;-32,951583;-60,658914;;;;;
2020-03-23;Rosario;Rosario;Santa Fe;-32,951583;-60,658914;;;;;
2020-03-23;Rosario;Rosario;Santa Fe;-32,951583;-60,658914;;;;;
2020-03-23;Gálvez;San Jerónimo;Santa Fe;-32,028863;-61,22444;;;;;
2020-03-23;Gálvez;San Jerónimo;Santa Fe;-32,028863;-61,22444;;;;;
2020-03-23;Villa Gobernador Gálvez;Rosario;Santa Fe;-33,022764;-60,639393;;;;;
2020-03-23;Helvecia;Garay;Santa Fe;-31,100418;-60,093723;;;;;
2020-03-23;Esperanza;Las Colonias;Santa Fe;-31,4498174;-60,9187229;;;;;
2020-03-24;Helvecia;Garay;Santa Fe;-31,100418;-60,093723;;;;;
2020-03-24;Rafaela;Castellanos;Santa Fe;-31,254752;-61,522802;;;;;Este caso confirmado fue notificado en la Provincia de Córdoba (residencia habitual Rafaela) se encuentra actualmente internado en el Hospital Vicente Agüero de Jesús María, con buena evolución. Regresa a Argentina a Córdoba y queda en aislamiento en mencionado Hospital
2020-03-24;Rafaela;Castellanos;Santa Fe;;-61,522802;;;;;
2020-03-24;Roldán;San Lorenzo;Santa Fe;-32,906594;-60,894515;;;;;
2020-03-24;Roldán;San Lorenzo;Santa Fe;-32,906594;-60,894515;;;;;
2020-03-25;Casilda;Caseros;Santa Fe;-33,048511;-61,17451;;;;;
2020-03-25;Rafaela;Castellanos;Santa Fe;-31,254752;-61,522802;;;;;
2020-03-25;Villa Constitución;Constitución;Santa Fe;-33,239043;-60,331831;;;;;
2020-03-25;Venado Tuerto;General López;Santa Fe;-33,744573;-61,977604;;;;;
2020-03-25;Santa Fe;La Capital;Santa Fe;-31,597238;-60,703039;;;;;
2020-03-25;Santa Fe;La Capital;Santa Fe;-31,597238;-60,703039;;;;;
2020-03-25;Santa Fe;La Capital;Santa Fe;-31,597238;-60,703039;;;;;
2020-03-25;Santa Fe;La Capital;Santa Fe;-31,597238;-60,703039;;;;;
2020-03-25;Santa Fe;La Capital;Santa Fe;-31,597238;-60,703039;;;;;
2020-03-25;Santa Fe;La Capital;Santa Fe;-31,597238;-60,703039;;;;;
2020-03-25;Santa Fe;La Capital;Santa Fe;-31,597238;-60,703039;;;;;
2020-03-25;Santo Tomé;La Capital;Santa Fe;-31,6719313;-60,8158793;;;;;
2020-03-25;Santo Tomé;La Capital;Santa Fe;-31,6719313;-60,8158793;;;;;
2020-03-25;Santo Tomé;La Capital;Santa Fe;-31,6719313;-60,8158793;;;;;
2020-03-25;Sauce Viejo;La Capital;Santa Fe;-31,7685187;-60,8355833;;;;;
2020-03-25;Rosario;Rosario;Santa Fe;-32,951583;-60,658914;;;;;
2020-03-25;Rosario;Rosario;Santa Fe;-32,951583;-60,658914;;;;;
2020-03-25;San Javier;San Javier;Santa Fe;-30,5744919;-59,9410152;;;;;
2020-03-25;Galvez;San Jerónimo;Santa Fe;-32,028863;-61,22444;;;;;
2020-03-26;Rosario;Rosario;Santa Fe;-32,951583;-60,658914;;;;;
2020-03-26;Rosario;Rosario;Santa Fe;-32,951583;-60,658914;;;;;
2020-03-26;Rosario;Rosario;Santa Fe;-32,951583;-60,658914;;;;;
2020-03-26;Rosario;Rosario;Santa Fe;-32,951583;-60,658914;;;;;
2020-03-26;Rafaela;Castellanos;Santa Fe;-31,254752;-61,522802;;;;;
2020-03-26;Las Parejas;Belgrano;Santa Fe;-32,6854497;-61,5327091;;;;;
2020-03-26;Casilda;Caseros;Santa Fe;-33,048511;-61,17451;;;;;
2020-03-26;San José del Rincón;La Capital;Santa Fe;-31,599999;-60,600838;;;;;
2020-03-26;Santa Fe;La Capital;Santa Fe;-31,597238;-60,703039;;;;;
2020-03-26;Santa Fe;La Capital;Santa Fe;-31,597238;-60,703039;;;;;
2020-03-26;Santa Fe;La Capital;Santa Fe;-31,597238;-60,703039;;;;;
2020-03-26;Santa Fe;La Capital;Santa Fe;-31,597238;-60,703039;;;;;
2020-03-26;Santa Fe;La Capital;Santa Fe;-31,597238;-60,703039;;;;;
2020-03-26;Franck;Las Colonias;Santa Fe;-31,581723;-60,95605;;;;;
2020-03-26;Humboldt;Las Colonias;Santa Fe;-31,398717;-61,088825;;;;;
2020-03-26;Vera;Vera;Santa Fe;-29,459076;-60,214647;;;;;
2020-03-27;Rosario;Rosario;Santa Fe;-32,951583;-60,658914;;;;;
2020-03-27;Rosario;Rosario;Santa Fe;-32,951583;-60,658914;;;;;
2020-03-27;Rosario;Rosario;Santa Fe;-32,951583;-60,658914;;;;;
2020-03-27;Rosario;Rosario;Santa Fe;-32,951583;-60,658914;;;;;
2020-03-27;Rosario;Rosario;Santa Fe;-32,951583;-60,658914;;;;;
2020-03-27;Rosario;Rosario;Santa Fe;-32,951583;-60,658914;;;;;
2020-03-27;Pueblo Andino;Iriondo;Santa Fe;-32,6717591;-60,8815538;;;;;
2020-03-27;Venado Tuerto;General López;Santa Fe;-33,744573;-61,977604;;;;;
2020-03-27;Villa Constitución;Constitución;Santa Fe;-33,239043;-60,331831;;;;;
2020-03-28;Rafaela;Castellanos;Santa Fe;-31,254752;-61,522802;;;;;
2020-03-28;Rafaela;Castellanos;Santa Fe;-31,254752;-61,522802;;;;;
2020-03-28;Rafaela;Castellanos;Santa Fe;-31,254752;-61,522802;;;;;
2020-03-28;Rafaela;Castellanos;Santa Fe;-31,254752;-61,522802;;;;;
2020-03-28;Santa Fe;La Capital;Santa Fe;-31,597238;-60,703039;;;;;
2020-03-28;Santa Fe;La Capital;Santa Fe;-31,597238;-60,703039;;;;;
2020-03-28;Santa Fe;La Capital;Santa Fe;-31,597238;-60,703039;;;;;
2020-03-28;Santa Fe;La Capital;Santa Fe;-31,597238;-60,703039;;;;;
2020-03-28;Rosario;Rosario;Santa Fe;-32,951583;-60,658914;;;;;
2020-03-28;Rosario;Rosario;Santa Fe;-32,951583;-60,658914;;;;;
2020-03-28;Rosario;Rosario;Santa Fe;-32,951583;-60,658914;;;;;
2020-03-28;Santo Tomé;La Capital;Santa Fe;-31,6719313;-60,8158793;;;;;
2020-03-28;Chabás;Caseros;Santa Fe;-33,2441169;-61,384907;;;;;
2020-03-29;Rosario;Rosario;Santa Fe;-32,951583;-60,658914;;;;;
2020-03-29;Rosario;Rosario;Santa Fe;-32,951583;-60,658914;;;;;
2020-03-29;Rosario;Rosario;Santa Fe;-32,951583;-60,658914;;;;;
2020-03-29;Rosario;Rosario;Santa Fe;-32,951583;-60,658914;;;;;
2020-03-29;Rosario;Rosario;Santa Fe;-32,951583;-60,658914;;;;;
2020-03-29;Rosario;Rosario;Santa Fe;-32,951583;-60,658914;;;;;
2020-03-29;Rosario;Rosario;Santa Fe;-32,951583;-60,658914;;;;;
2020-03-29;Galvez;San Jerónimo;Santa Fe;-32,028863;-61,22444;;;;;
2020-03-29;Galvez;San Jerónimo;Santa Fe;-32,028863;-61,22444;;;;;
2020-03-29;Galvez;San Jerónimo;Santa Fe;-32,028863;-61,22444;;;;;
2020-03-29;Arroyo Seco;Rosario;Santa Fe;-33,1600575;-60,5728645;;;;;
2020-03-29;Arroyo Seco;Rosario;Santa Fe;-33,1600575;-60,5728645;;;;;
2020-03-29;Santa Fe;La Capital;Santa Fe;-31,597238;-60,703039;;;;;
2020-03-30;Rosario;Rosario;Santa Fe;-32,951583;-60,658914;;;;;
2020-03-30;Rosario;Rosario;Santa Fe;-32,951583;-60,658914;;;;;
2020-03-30;Rosario;Rosario;Santa Fe;-32,951583;-60,658914;;;;;
2020-03-30;Rosario;Rosario;Santa Fe;-32,951583;-60,658914;;;;;
2020-03-30;Rosario;Rosario;Santa Fe;-32,951583;-60,658914;;;;;
2020-03-30;Rosario;Rosario;Santa Fe;-32,951583;-60,658914;;;;;
2020-03-30;Rosario;Rosario;Santa Fe;-32,951583;-60,658914;;;;;
2020-03-30;Rosario;Rosario;Santa Fe;-32,951583;-60,658914;;;;;
2020-03-30;Rosario;Rosario;Santa Fe;-32,951583;-60,658914;;;;;
2020-03-30;Rosario;Rosario;Santa Fe;-32,951583;-60,658914;;;;;
2020-03-30;Rosario;Rosario;Santa Fe;-32,951583;-60,658914;;;;;
2020-03-30;Rosario;Rosario;Santa Fe;-32,951583;-60,658914;;;;;
2020-03-30;Rosario;Rosario;Santa Fe;-32,951583;-60,658914;;;;;
2020-03-30;Rosario;Rosario;Santa Fe;-32,951583;-60,658914;;;;;
2020-03-30;Villa Constitución;Constitución;Santa Fe;-33,239043;-60,331831;;;;;
2020-03-30;Villa Constitución;Constitución;Santa Fe;-33,239043;-60,331831;;;;;
2020-03-30;Armstrong;Belgrano;Santa Fe;-32,7814702;-61,623332;;;;;
2020-03-30;Armstrong;Belgrano;Santa Fe;-32,7814702;-61,623332;;;;;
2020-03-30;Rafaela;Castellanos;Santa Fe;-31,254752;-61,522802;;;;;
2020-03-30;Funes;Rosario;Santa Fe;-32,94821;-61,0201238;;;;;
2020-03-30;Roldán;San Lorenzo;Santa Fe;-32,906594;-60,894515;;;;;
2020-03-31;Rosario;Rosario;Santa Fe;-32,951583;-60,658914;;;;;
2020-03-31;Rosario;Rosario;Santa Fe;-32,951583;-60,658914;;;;;
2020-03-31;Rosario;Rosario;Santa Fe;-32,951583;-60,658914;;;;;
2020-03-31;Rosario;Rosario;Santa Fe;-32,951583;-60,658914;;;;;
2020-03-31;Rosario;Rosario;Santa Fe;-32,951583;-60,658914;;;;;
2020-03-31;Rosario;Rosario;Santa Fe;-32,951583;-60,658914;;;;;
2020-03-31;Rosario;Rosario;Santa Fe;-32,951583;-60,658914;;;;;
2020-03-31;Santa Fe;La Capital;Santa Fe;-31,597238;-60,703039;;;;;
2020-03-31;Santa Fe;La Capital;Santa Fe;-31,597238;-60,703039;;;;;
2020-03-31;Santa Fe;La Capital;Santa Fe;-31,597238;-60,703039;;;;;
2020-03-31;Santa Fe;La Capital;Santa Fe;-31,597238;-60,703039;;;;;
2020-03-31;Rafaela;Castellanos;Santa Fe;-31,254752;-61,522802;;;;;
2020-03-31;Rafaela;Castellanos;Santa Fe;-31,254752;-61,522802;;;;;
2020-03-31;Rafaela;Castellanos;Santa Fe;-31,254752;-61,522802;;;;;
2020-03-31;Pujato;San Lorenzo;Santa Fe;-33,0155977;-61,0617535;;;;;
2020-03-31;Pujato;San Lorenzo;Santa Fe;-33,0155977;-61,0617535;;;;;
2020-03-31;Elortondo;General López;Santa Fe;-33,6999187;-61,6258412;;;;;
2020-03-31;Elortondo;General López;Santa Fe;-33,6999187;-61,6258412;;;;;
2020-03-31;Cañada de Gómez;Iriondo;Santa Fe;-32,8146262;-61,4294832;;;;;
2020-03-31;Pueblo Andino;Iriondo;Santa Fe;-32,6717591;-60,8815538;;;;;
2020-03-31;Roldán;San Lorenzo;Santa Fe;-32,906594;-60,894515;;;;;
2020-03-31;San Carlos Sud;Las Colonias;Santa Fe;-31,760034;-61,1201323;;;;;
2020-04-01;Rosario;Rosario;Santa Fe;-32,951583;-60,658914;;;;;
2020-04-01;Rosario;Rosario;Santa Fe;-32,951583;-60,658914;;;;;
2020-04-01;Rosario;Rosario;Santa Fe;-32,951583;-60,658914;;;;;
2020-04-01;Rosario;Rosario;Santa Fe;-32,951583;-60,658914;;;;;
2020-04-01;Rosario;Rosario;Santa Fe;-32,951583;-60,658914;;;;;
2020-04-01;Villa Constitución;Constitución;Santa Fe;-33,239043;-60,331831;;;;;
2020-04-01;Funes;Rosario;Santa Fe;-32,94821;-61,0201238;;;;;
2020-04-01;Villa Gobernador Gálvez;Rosario;Santa Fe;-33,022764;-60,639393;;;;;
2020-04-01;San Genaro;San Jerónimo;Santa Fe;-32,370737;-61,3780755;;;;;
2020-04-01;Galvez;San Jerónimo;Santa Fe;-32,028863;-61,22444;;;;;
2020-04-01;Venado Tuerto;General López;Santa Fe;-33,744573;-61,977604;;;;;
2020-04-02;Rafaela;Castellanos;Santa Fe;-31,254752;-61,522802;;;;;
2020-04-02;Rafaela;Castellanos;Santa Fe;-31,254752;-61,522802;;;;;
2020-04-02;Rafaela;Castellanos;Santa Fe;-31,254752;-61,522802;;;;;
2020-04-02;Rafaela;Castellanos;Santa Fe;-31,254752;-61,522802;;;;;
2020-04-02;Rosario;Rosario;Santa Fe;-32,951583;-60,658914;;;;;
2020-04-02;Rosario;Rosario;Santa Fe;-32,951583;-60,658914;;;;;
2020-04-02;San Lorenzo;San Lorenzo;Santa Fe;-32,747952;-60,7762979;;;;;
2020-04-02;Funes;Rosario;Santa Fe;-32,94821;-61,0201238;;;;;
2020-04-03;Rosario;Rosario;Santa Fe;-32,951583;-60,658914;;;;;
2020-04-03;Rosario;Rosario;Santa Fe;-32,951583;-60,658914;;;;;
2020-04-03;Rosario;Rosario;Santa Fe;-32,951583;-60,658914;;;;;
2020-04-03;Rosario;Rosario;Santa Fe;-32,951583;-60,658914;;;;;
2020-04-03;Rosario;Rosario;Santa Fe;-32,951583;-60,658914;;;;;
2020-04-03;Rosario;Rosario;Santa Fe;-32,951583;-60,658914;;;;;
2020-04-03;Rosario;Rosario;Santa Fe;-32,951583;-60,658914;;;;;
2020-04-03;Rafaela;Castellanos;Santa Fe;-31,254752;-61,522802;;;;;
2020-03-13;Gualeguay;;Entre Ríos;-33,144619;-59,332405;i;i;30;M;"Volvió de vacaciones
https://viapais.com.ar/gualeguaychu/1637835-el-primer-caso-confirmado-de-coronavirus-en-entre-rios-esta-en-gualeguay/"
2020-03-17;Paraná;;Entre Ríos;-31,747241;-60,550068;i;i;;;"Residencia extranjera 
https://www.diarioelargentino.com.ar/noticias/204464/confirman-un-caso-positivo-de-coronavirus-en-parana"
2020-03-18;Gualeguay;;Entre Ríos;-33,144619;-59,332405;i;a;;;https://www.analisisdigital.com.ar/provinciales/2020/03/18/confirman-nuevo-caso-de-coronavirus-en-entre-rios
2020-03-20;Gualeguaychú;;Entre Ríos;-33,008098;-58,583538;i;i;;M;"http://noticias.entrerios.gov.ar/notas/salud-inform-un-nuevo-caso-de-coronavirus-en-gualeguaych.htm
https://www.minutoneuquen.com/nacionales/2020/3/20/aumentaron-los-casos-de-coronavirus-en-entre-rios-ya-son-cuatro-los-infectados-197962.html"
2020-03-25;Paraná;;Entre Ríos;-31,747241;-60,550068;i;i;;M;https://www.elonce.com/secciones/sociedad/620203-salud-de-entre-rnos-informn-tres-nuevos-casos-de-covid-19-uno-es-de-paranna.htm
2020-03-25;Gualeguay;;Entre Ríos;-33,144619;-59,332405;i;i;;;https://www.elonce.com/secciones/sociedad/620203-salud-de-entre-rnos-informn-tres-nuevos-casos-de-covid-19-uno-es-de-paranna.htm
2020-03-25;Villaguay;;Entre Ríos;-31,859641;-59,032109;i;i;;M;https://www.elonce.com/secciones/sociedad/620203-salud-de-entre-rnos-informn-tres-nuevos-casos-de-covid-19-uno-es-de-paranna.htm
2020-03-26;Paraná;;Entre Ríos;-31,747241;-60,550068;i;a;;F;https://www.unoentrerios.com.ar/el-pais/coronavirus-11-casos-confirmados-rios-589-el-pais-n2573679.html
2020-03-26;Paraná;;Entre Ríos;-31,747241;-60,550068;i;a;;F;https://www.unoentrerios.com.ar/el-pais/coronavirus-11-casos-confirmados-rios-589-el-pais-n2573679.html
2020-03-26;Diamante;;Entre Ríos;-32,069224;-60,630263;i;i;;M;https://www.unoentrerios.com.ar/el-pais/coronavirus-11-casos-confirmados-rios-589-el-pais-n2573679.html
2020-03-30;Gualeguaychú;;Entre Ríos;-33,008098;-58,583538;i;i;;;https://www.elonce.com/secciones/politicas/620721-tres-nuevos-casos-positivos-de-coronavirus-en-entre-rnos-son-13-en-la-provincia.htm
2020-03-30;Colón;;Entre Ríos;-32,225084;-58,145681;i;i;;;https://www.elonce.com/secciones/politicas/620721-tres-nuevos-casos-positivos-de-coronavirus-en-entre-rnos-son-13-en-la-provincia.htm
2020-03-30;Concordia;;Entre Ríos;-31,396066;-58,018554;i;i;;;https://www.elonce.com/secciones/politicas/620721-tres-nuevos-casos-positivos-de-coronavirus-en-entre-rnos-son-13-en-la-provincia.htm
2020-04-01;Colón;;Entre Ríos;-32,225084;-58,145681;i;a;;;https://www.elonce.com/secciones/sociedad/620948-un-nuevo-caso-positivo-de-coronavirus-en-entre-rnos.htm
2020-04-02;Gualeguaychú;;Entre Ríos;-33,008098;-58,583538;i;a;;M;
2020-04-02;Paraná;;Entre Ríos;-31,747241;-60,550068;i;i;;F;
2020-04-03;Gualeguaychú;;Entre Ríos;-33,008098;-58,583538;i;i;;;https://www.analisisdigital.com.ar/provinciales/2020/04/03/se-confirmaron-dos-nuevos-casos-de-covid-19-y-ya-suman-18-en-entre-rios
2020-04-03;Paraná;;Entre Ríos;-31,747241;-60,550068;i;a;;;https://www.analisisdigital.com.ar/provinciales/2020/04/03/se-confirmaron-dos-nuevos-casos-de-covid-19-y-ya-suman-18-en-entre-rios
2020-04-04;Rosario;Rosario;Santa Fe;-32,951583;-60,658914;;;;;
2020-04-04;Rosario;Rosario;Santa Fe;-32,951583;-60,658914;;;;;
2020-04-04;Rosario;Rosario;Santa Fe;-32,951583;-60,658914;;;;;
2020-04-04;Santa Fe;La Capital;Santa Fe;-31,597238;-60,703039;;;;;
2020-04-04;Firmat;General López;Santa Fe;-33,4585226;-61,5050402;;;;;
2020-04-05;Rosario;Rosario;Santa Fe;-32,951583;-60,658914;;;;;
2020-04-05;Rosario;Rosario;Santa Fe;-32,951583;-60,658914;;;;;
2020-04-05;Rosario;Rosario;Santa Fe;-32,951583;-60,658914;;;;;
2020-04-05;Rosario;Rosario;Santa Fe;-32,951583;-60,658914;;;;;
2020-04-05;Rosario;Rosario;Santa Fe;-32,951583;-60,658914;;;;;
2020-04-05;Llambi Campbell;La Capital;Santa Fe;-31,1868557;-60,7545153;;;;;
2020-04-05;Llambi Campbell;La Capital;Santa Fe;-31,1868557;-60,7545153;;;;;
2020-04-05;Llambi Campbell;La Capital;Santa Fe;-31,1868557;-60,7545153;;;;;
2020-04-05;Villa Constitución;Constitución;Santa Fe;-33,239043;-60,331831;;;;;
2020-04-05;Santo Tomé;La Capital;Santa Fe;-31,6719313;-60,8158793;;;;;
2020-04-05;Venado Tuerto;General López;Santa Fe;-33,744573;-61,977604;;;;;
2020-04-06;Villa Constitución;Constitución;Santa Fe;-33,239043;-60,331831;;;;;
2020-04-06;Villa Constitución;Constitución;Santa Fe;-33,239043;-60,331831;;;;;
2020-04-06;Santa Fe;La Capital;Santa Fe;-31,597238;-60,703039;;;;;
2020-04-06;Santa Fe;La Capital;Santa Fe;-31,597238;-60,703039;;;;;
2020-04-06;Santa Fe;La Capital;Santa Fe;-31,597238;-60,703039;;;;;
2020-04-06;Rosario;Rosario;Santa Fe;-32,951583;-60,658914;;;;;
2020-04-06;Rosario;Rosario;Santa Fe;-32,951583;-60,658914;;;;;
2020-04-06;Rosario;Rosario;Santa Fe;-32,951583;-60,658914;;;;;
2020-04-05;Paraná;;Entre Ríos;-31,747241;-60,550068;i;a;;F;https://www.unoentrerios.com.ar/la-provincia/coronavirus-rios-otro-caso-parana-y-ya-son-19-la-provincia-n2575808.html
